{
  "Working Directory":"\/Users\/mateuszdrewniak",
  "Prompt Before Closing 2":false,
  "Rows":25,
  "Ansi 0 Color":{
     "Color Space":"sRGB",
     "Red Component":0.12941176470588237,
     "Green Component":0.13333333333333333,
     "Blue Component":0.17254901960784313
  },
  "Ansi 1 Color":{
     "Color Space":"sRGB",
     "Red Component":1,
     "Green Component":0.3333333333333333,
     "Blue Component":0.3333333333333333
  },
  "Ansi 2 Color":{
     "Color Space":"sRGB",
     "Red Component":0.3137254901960784,
     "Green Component":0.9803921568627451,
     "Blue Component":0.4823529411764706
  },
  "Ansi 3 Color":{
     "Color Space":"sRGB",
     "Red Component":0.9450980392156862,
     "Green Component":0.9803921568627451,
     "Blue Component":0.5490196078431373
  },
  "Ansi 4 Color":{
     "Color Space":"sRGB",
     "Red Component":0.7411764705882353,
     "Green Component":0.5764705882352941,
     "Blue Component":0.9764705882352941
  },
  "Ansi 5 Color":{
     "Color Space":"sRGB",
     "Red Component":1,
     "Green Component":0.4745098039215686,
     "Blue Component":0.7764705882352941
  },
  "Ansi 6 Color":{
     "Color Space":"sRGB",
     "Red Component":0.5450980392156862,
     "Green Component":0.9137254901960784,
     "Blue Component":0.9921568627450981
  },
  "Ansi 7 Color":{
     "Color Space":"sRGB",
     "Red Component":0.9725490196078431,
     "Green Component":0.9725490196078431,
     "Blue Component":0.9490196078431372
  },
  "Ansi 8 Color":{
     "Color Space":"sRGB",
     "Red Component":0.3843137254901961,
     "Green Component":0.4470588235294118,
     "Blue Component":0.6431372549019608
  },
  "Ansi 9 Color":{
     "Color Space":"sRGB",
     "Red Component":1,
     "Green Component":0.43137254901960786,
     "Blue Component":0.43137254901960786
  },
  "Ansi 10 Color":{
     "Color Space":"sRGB",
     "Red Component":0.4117647058823529,
     "Green Component":1,
     "Blue Component":0.5803921568627451
  },
  "Ansi 11 Color":{
     "Color Space":"sRGB",
     "Red Component":1,
     "Green Component":1,
     "Blue Component":0.6470588235294118
  },
  "Ansi 12 Color":{
     "Color Space":"sRGB",
     "Red Component":0.8392156862745098,
     "Green Component":0.6745098039215687,
     "Blue Component":1
  },
  "Ansi 13 Color":{
     "Color Space":"sRGB",
     "Red Component":1,
     "Green Component":0.5725490196078431,
     "Blue Component":0.8745098039215686
  },
  "Ansi 14 Color":{
     "Color Space":"sRGB",
     "Red Component":0.6431372549019608,
     "Green Component":1,
     "Blue Component":1
  },
  "Ansi 15 Color":{
     "Color Space":"sRGB",
     "Red Component":1,
     "Green Component":1,
     "Blue Component":1
  },
  "Link Color":{
     "Color Space":"sRGB",
     "Red Component":0.21568627450980393,
     "Green Component":0.5803921568627451,
     "Blue Component":1
  },
  "Foreground Color":{
     "Color Space":"sRGB",
     "Red Component":0.9725490196078431,
     "Green Component":0.9725490196078431,
     "Blue Component":0.9490196078431372
  },
  "Selection Color":{
     "Color Space":"sRGB",
     "Red Component":0.26666666666666666,
     "Green Component":0.2784313725490196,
     "Blue Component":0.35294117647058826
  },
  "Selected Text Color":{
     "Color Space":"sRGB",
     "Red Component":0.9725490196078431,
     "Green Component":0.9725490196078431,
     "Blue Component":0.9490196078431372
  },
  "Background Color":{
     "Color Space":"sRGB",
     "Red Component":0.1568627450980392,
     "Green Component":0.16470588235294117,
     "Blue Component":0.21176470588235294
  },
  "Use Italic Font":true,
  "HotKey Characters":"§",
  "HotKey Window Floats":false,
  "Use Custom Window Title":false,
  "Right Option Key Sends":0,
  "Character Encoding":4,
  "Blend":0.14659914626288661,
  "Mouse Reporting":true,
  "Non-ASCII Anti Aliased":true,
  "Sync Title":false,
  "Disable Window Resizing":true,
  "Description":"Default",
  "Close Sessions On End":true,
  "Jobs to Ignore":[
     "rlogin",
     "ssh",
     "slogin",
     "telnet"
  ],
  "Scrollback Lines":1000,
  "HotKey Window Reopens On Activation":false,
  "Draw Powerline Glyphs":false,
  "Hide After Opening":false,
  "Brighten Bold Text":true,
  "Flashing Bell":false,
  "BM Growl":true,
  "Use Non-ASCII Font":false,
  "Shortcut":"",
  "Bold Color":{
     "Green Component":1,
     "Red Component":1,
     "Blue Component":1
  },
  "Unlimited Scrollback":false,
  "Custom Command":"No",
  "HotKey Key Code":10,
  "Keyboard Map":{
     "0xf700-0x260000":{
        "Text":"[1;6A",
        "Action":10
     },
     "0x37-0x40000":{
        "Text":"0x1f",
        "Action":11
     },
     "0x32-0x40000":{
        "Text":"0x00",
        "Action":11
     },
     "0xf709-0x20000":{
        "Text":"[17;2~",
        "Action":10
     },
     "0xf70c-0x20000":{
        "Text":"[20;2~",
        "Action":10
     },
     "0xf729-0x20000":{
        "Text":"[1;2H",
        "Action":10
     },
     "0xf72b-0x40000":{
        "Text":"[1;5F",
        "Action":10
     },
     "0xf705-0x20000":{
        "Text":"[1;2Q",
        "Action":10
     },
     "0xf703-0x260000":{
        "Text":"[1;6C",
        "Action":10
     },
     "0xf700-0x220000":{
        "Text":"[1;2A",
        "Action":10
     },
     "0xf701-0x280000":{
        "Text":"0x1b 0x1b 0x5b 0x42",
        "Action":11
     },
     "0x38-0x40000":{
        "Text":"0x7f",
        "Action":11
     },
     "0x33-0x40000":{
        "Text":"0x1b",
        "Action":11
     },
     "0xf703-0x220000":{
        "Text":"[1;2C",
        "Action":10
     },
     "0xf701-0x240000":{
        "Text":"[1;5B",
        "Action":10
     },
     "0xf70d-0x20000":{
        "Text":"[21;2~",
        "Action":10
     },
     "0xf702-0x260000":{
        "Text":"[1;6D",
        "Action":10
     },
     "0xf729-0x40000":{
        "Text":"[1;5H",
        "Action":10
     },
     "0xf706-0x20000":{
        "Text":"[1;2R",
        "Action":10
     },
     "0x34-0x40000":{
        "Text":"0x1c",
        "Action":11
     },
     "0xf700-0x280000":{
        "Text":"0x1b 0x1b 0x5b 0x41",
        "Action":11
     },
     "0x2d-0x40000":{
        "Text":"0x1f",
        "Action":11
     },
     "0xf70e-0x20000":{
        "Text":"[23;2~",
        "Action":10
     },
     "0xf702-0x220000":{
        "Text":"[1;2D",
        "Action":10
     },
     "0xf703-0x280000":{
        "Text":"0x1b 0x1b 0x5b 0x43",
        "Action":11
     },
     "0xf700-0x240000":{
        "Text":"[1;5A",
        "Action":10
     },
     "0xf707-0x20000":{
        "Text":"[1;2S",
        "Action":10
     },
     "0xf70a-0x20000":{
        "Text":"[18;2~",
        "Action":10
     },
     "0x35-0x40000":{
        "Text":"0x1d",
        "Action":11
     },
     "0xf70f-0x20000":{
        "Text":"[24;2~",
        "Action":10
     },
     "0xf703-0x240000":{
        "Text":"[1;5C",
        "Action":10
     },
     "0xf701-0x260000":{
        "Text":"[1;6B",
        "Action":10
     },
     "0xf702-0x280000":{
        "Text":"0x1b 0x1b 0x5b 0x44",
        "Action":11
     },
     "0xf72b-0x20000":{
        "Text":"[1;2F",
        "Action":10
     },
     "0x36-0x40000":{
        "Text":"0x1e",
        "Action":11
     },
     "0xf708-0x20000":{
        "Text":"[15;2~",
        "Action":10
     },
     "0xf701-0x220000":{
        "Text":"[1;2B",
        "Action":10
     },
     "0xf70b-0x20000":{
        "Text":"[19;2~",
        "Action":10
     },
     "0xf702-0x240000":{
        "Text":"[1;5D",
        "Action":10
     },
     "0xf704-0x20000":{
        "Text":"[1;2P",
        "Action":10
     }
  },
  "Send Code When Idle":false,
  "ASCII Anti Aliased":true,
  "Tags":[
     
  ],
  "Use Bold Font":true,
  "Silence Bell":false,
  "Window Type":0,
  "Use Bright Bold":true,
  "Has Hotkey":false,
  "HotKey Modifier Activation":0,
  "Cursor Text Color":{
     "Green Component":1,
     "Red Component":1,
     "Blue Component":1
  },
  "HotKey Window Dock Click Action":0,
  "Default Bookmark":"No",
  "Cursor Color":{
     "Green Component":0.73333334922790527,
     "Red Component":0.73333334922790527,
     "Blue Component":0.73333334922790527
  },
  "Name":"Default",
  "Blinking Cursor":false,
  "Guid":"5F581A3E-DD5B-4B4D-897E-608DDA5C4CA5",
  "Idle Code":0,
  "Ambiguous Double Width":false,
  "Blur Radius":21.408024666878173,
  "Background Image Mode":2,
  "Cursor Type":2,
  "Blur":true,
  "Vertical Spacing":1.01,
  "Normal Font":"TerminessTTFNerdFontComplete-Medium 11",
  "Space":-1,
  "HotKey Window AutoHides":true,
  "Command":"",
  "Terminal Type":"xterm-256color",
  "Horizontal Spacing":1,
  "Option Key Sends":0,
  "Only The Default BG Color Uses Transparency":true,
  "HotKey Window Animates":true,
  "Blink Allowed":false,
  "HotKey Modifier Flags":0,
  "Transparency":0.19334152918781727,
  "HotKey Activated By Modifier":false,
  "Screen":-1,
  "Initial Use Transparency":true,
  "HotKey Characters Ignoring Modifiers":"§",
  "Bound Hosts":[
     
  ],
  "Non Ascii Font":"RobotoMonoNerdFontComplete-Medium 10",
  "Columns":80,
  "HotKey Alternate Shortcuts":[
     
  ],
  "Visual Bell":true,
  "Custom Directory":"No",
  "ASCII Ligatures":false
}